<svg width="350" height="172" viewBox="0 0 350 172" fill="none" xmlns="http://www.w3.org/2000/svg">
<path d="M350 144.472C330.643 162.653 309.485 172.057 288.063 172C284.983 172 281.924 171.811 278.888 171.433C212.703 163.215 146.323 163.215 80.1378 171.433C77.1035 171.807 74.0454 171.996 70.9634 172C46.1031 172.072 21.6564 159.398 0 135.212C32.759 107.097 96.7446 88 170.318 88C251.713 88 321.374 111.368 350 144.472Z" fill="#FFEAEF"/>
<ellipse opacity="0.1" cx="48.077" cy="119.657" rx="16.2393" ry="5.53571" fill="black"/>
<ellipse opacity="0.1" cx="308.761" cy="143.503" rx="16.2393" ry="5.53571" fill="black"/>
<path d="M307.809 143.929C307.809 143.929 312.4 129.522 306.945 118.918C304.622 114.484 303.921 109.475 304.948 104.642C305.455 102.351 306.189 100.107 307.14 97.9396" stroke="#535461" stroke-width="0.586813"/>
<path d="M304.491 90.9607C304.491 92.7483 307.908 97.9396 307.908 97.9396C307.908 97.9396 311.325 92.7519 311.325 90.9607C311.325 89.1708 309.794 87.7198 307.906 87.7198C306.018 87.7198 304.487 89.1708 304.487 90.9607H304.491Z" fill="#FF4A73"/>
<path d="M299.007 101.385C299.953 102.932 305.342 105.604 305.342 105.604C305.342 105.604 305.245 99.3051 304.299 97.7588C303.687 96.7585 302.618 96.1798 301.494 96.2406C300.37 96.3015 299.362 96.9927 298.85 98.0538C298.337 99.115 298.399 100.385 299.01 101.385H299.007Z" fill="#FF4A73"/>
<path d="M299.418 117.927C301.004 118.761 307.051 118.186 307.051 118.186C307.051 118.186 303.9 112.761 302.314 111.927C300.728 111.091 298.794 111.757 297.995 113.414C297.195 115.07 297.832 117.091 299.418 117.927Z" fill="#FF4A73"/>
<path d="M302.337 130.403C303.718 131.516 309.615 132.006 309.615 132.006C309.615 132.006 307.447 126.101 306.059 125C304.67 123.896 302.71 124.211 301.682 125.703C300.654 127.195 300.947 129.299 302.337 130.403Z" fill="#FF4A73"/>
<path d="M312.016 104.906C310.686 106.087 304.487 107.308 304.487 107.308C304.487 107.308 306.006 101.69 307.337 100.51C308.667 99.33 310.793 99.358 312.085 100.572C313.377 101.786 313.346 103.727 312.016 104.906Z" fill="#FF4A73"/>
<path d="M315.539 120.48C313.953 121.317 307.906 120.741 307.906 120.741C307.906 120.741 311.057 115.301 312.644 114.483C314.229 113.645 316.163 114.312 316.963 115.974C317.762 117.635 317.125 119.661 315.539 120.499V120.48Z" fill="#FF4A73"/>
<path d="M316.894 135.513C315.513 136.626 309.615 137.115 309.615 137.115C309.615 137.115 311.784 131.211 313.172 130.11C314.561 129.006 316.521 129.321 317.549 130.813C318.577 132.305 318.284 134.409 316.894 135.513Z" fill="#FF4A73"/>
<path d="M47.8737 120.082C47.8737 120.082 57.0698 89.1487 46.1555 66.3532C41.5736 56.7911 40.0701 46.0609 42.1714 35.6858C43.1843 30.765 44.6498 25.9467 46.5493 21.2912" stroke="#535461" stroke-width="0.586813"/>
<path d="M39.5336 6.75036C39.5336 10.4781 46.3712 21.2912 46.3712 21.2912C46.3712 21.2912 53.2052 10.4711 53.2052 6.75036C53.2052 3.02224 50.1439 0 46.3676 0C42.5913 0 39.53 3.02224 39.53 6.75036H39.5336Z" fill="#FF4A73"/>
<path d="M27.763 28.1241C29.9046 31.2505 42.0941 36.6209 42.0941 36.6209C42.0941 36.6209 41.8729 23.9348 39.7314 20.8223C37.5526 17.8067 33.2182 16.981 29.9677 18.9623C26.7171 20.9436 25.7384 25.0076 27.763 28.1172V28.1241Z" fill="#FF4A73"/>
<path d="M28.8572 63.819C32.3182 65.4915 45.5128 64.3371 45.5128 64.3371C45.5128 64.3371 38.6199 53.4815 35.177 51.8194C32.9386 50.7374 30.268 50.8821 28.1711 52.1991C26.0742 53.516 24.8697 55.8051 25.0112 58.2041C25.1528 60.603 26.6188 62.7474 28.8572 63.8294V63.819Z" fill="#FF4A73"/>
<path d="M35.4828 90.4772C38.5395 92.6839 51.4958 93.6813 51.4958 93.6813C51.4958 93.6813 46.7275 81.8657 43.6672 79.6693C40.6112 77.4621 36.3017 78.0923 34.0416 81.0768C31.7816 84.0613 32.4268 88.27 35.4828 90.4772Z" fill="#FF4A73"/>
<path d="M57.0386 37.249C54.2475 39.8682 41.2393 42.5824 41.2393 42.5824C41.2393 42.5824 44.4239 30.0992 47.215 27.48C50.0072 24.8552 54.4731 24.9144 57.1898 27.612C59.9065 30.3097 59.8453 34.6243 57.0531 37.249H57.0386Z" fill="#FF4A73"/>
<path d="M63.8778 68.9288C60.4168 70.6013 47.2222 69.4469 47.2222 69.4469C47.2222 69.4469 54.1151 58.5914 57.558 56.9293C59.7964 55.8473 62.467 55.992 64.5639 57.309C66.6607 58.6259 67.8653 60.915 67.7238 63.314C67.5822 65.7129 66.1161 67.8573 63.8778 68.9393V68.9288Z" fill="#FF4A73"/>
<path d="M66.6541 100.697C63.5974 102.904 50.6411 103.901 50.6411 103.901C50.6411 103.901 55.4094 92.0854 58.4697 89.8891C61.5257 87.6819 65.8352 88.3121 68.0953 91.2966C70.3554 94.2811 69.7101 98.4898 66.6541 100.697Z" fill="#FF4A73"/>
<path d="M160.731 43.4106L140.93 40.9715C140.127 40.8735 139.509 40.583 139.531 40.3296C139.566 40.0763 140.241 39.958 141.062 40.0695L160.82 42.789C161.364 42.8634 161.776 43.0593 161.751 43.2316C161.726 43.3938 161.272 43.4782 160.731 43.4106Z" fill="#FF4A73"/>
<path d="M160.804 44.5019L141.04 42.6031C140.238 42.5275 139.555 42.6655 139.531 42.9119C139.506 43.1583 140.146 43.4178 140.945 43.4835L160.744 45.1261C161.289 45.172 161.734 45.0735 161.752 44.906C161.766 44.7286 161.345 44.5544 160.804 44.5019Z" fill="#FF4A73"/>
<path d="M190.982 58.7403L210.779 56.3012C211.582 56.2032 212.2 55.9127 212.179 55.6593C212.143 55.4059 211.468 55.2877 210.648 55.3992L190.889 58.1187C190.346 58.193 189.933 58.389 189.958 58.5613C189.983 58.7234 190.438 58.8079 190.982 58.7403Z" fill="#FF4A73"/>
<path d="M190.905 58.9799L210.669 57.0811C211.472 57.0056 212.154 57.1435 212.179 57.3899C212.204 57.6363 211.564 57.8958 210.765 57.9615L190.965 59.6041C190.421 59.6501 189.975 59.5515 189.958 59.384C189.943 59.2066 190.364 59.0325 190.905 58.9799Z" fill="#FF4A73"/>
<rect x="119.872" y="80.0549" width="5.12821" height="68.9835" fill="#40414D"/>
<rect x="226.709" y="80.0549" width="5.12821" height="68.9835" fill="#40414D"/>
<path d="M118.348 74.9451H230.797C235.148 74.9451 238.675 78.3112 238.675 82.4636V83.4615H110.47V82.4636C110.47 78.3112 113.997 74.9451 118.348 74.9451V74.9451Z" fill="#DFE6F5"/>
<path opacity="0.1" d="M118.348 74.9451H230.797C235.148 74.9451 238.675 78.3112 238.675 82.4636V83.4615H110.47V82.4636C110.47 78.3112 113.997 74.9451 118.348 74.9451V74.9451Z" fill="black"/>
<path d="M118.348 73.2418H230.797C235.148 73.2418 238.675 76.6079 238.675 80.7603V81.7582H110.47V80.7603C110.47 76.6079 113.997 73.2418 118.348 73.2418Z" fill="#DFE6F5"/>
<ellipse cx="175" cy="57.4863" rx="9.82906" ry="9.79396" fill="#FFD77C" stroke="#FFAB50" stroke-width="0.5"/>
<ellipse cx="174.573" cy="57.9121" rx="7.69231" ry="7.66483" fill="#FFD77C" stroke="#FFAB50" stroke-width="0.5"/>
<ellipse cx="174.573" cy="57.9121" rx="5.98291" ry="5.96154" fill="#FFD77C" stroke="#FFAB50" stroke-width="0.5"/>
<ellipse cx="174.573" cy="57.9121" rx="3.4188" ry="3.40659" fill="#FFD77C" stroke="#FFAB50" stroke-width="0.5"/>
<ellipse cx="169.017" cy="62.5962" rx="9.82906" ry="9.79396" fill="#FFD77C" stroke="#FFAB50" stroke-width="0.5"/>
<ellipse cx="169.445" cy="63.022" rx="7.69231" ry="7.66483" fill="#FFD77C" stroke="#FFAB50" stroke-width="0.5"/>
<ellipse cx="169.444" cy="63.022" rx="5.98291" ry="5.96154" fill="#FFD77C" stroke="#FFAB50" stroke-width="0.5"/>
<ellipse cx="169.444" cy="63.022" rx="3.4188" ry="3.40659" fill="#FFD77C" stroke="#FFAB50" stroke-width="0.5"/>
<ellipse cx="180.128" cy="62.5962" rx="9.82906" ry="9.79396" fill="#FFD77C" stroke="#FFAB50" stroke-width="0.5"/>
<ellipse cx="180.556" cy="63.022" rx="7.69231" ry="7.66483" fill="#FFD77C" stroke="#FFAB50" stroke-width="0.5"/>
<ellipse cx="180.556" cy="63.022" rx="5.98291" ry="5.96154" fill="#FFD77C" stroke="#FFAB50" stroke-width="0.5"/>
<ellipse cx="180.556" cy="63.022" rx="3.4188" ry="3.40659" fill="#FFD77C" stroke="#FFAB50" stroke-width="0.5"/>
<path d="M154.06 60.467H195.085V62.3665C195.085 66.1543 193.559 69.7869 190.843 72.4653C188.126 75.1437 184.442 76.6484 180.6 76.6484H168.545C160.545 76.6484 154.06 70.2542 154.06 62.3665V60.467Z" fill="#FF4A73"/>
<path opacity="0.1" d="M191.39 60.467C191.168 69.241 183.902 76.2402 175.013 76.2413H166.88C168.067 76.5089 169.28 76.6454 170.496 76.6484H178.69C183.038 76.6503 187.208 74.9463 190.283 71.9115C193.358 68.8767 195.085 64.7598 195.085 60.467L191.39 60.467Z" fill="black"/>
<path d="M229.273 132.857V137.967H123.291V132.857H229.273Z" fill="#40414D"/>
<rect x="79.7009" y="115.824" width="4.2735" height="38.3242" fill="#40414D"/>
<rect x="113.034" y="115.824" width="4.2735" height="38.3242" fill="#40414D"/>
<path d="M120.726 109.437C120.726 112.022 112.022 114.121 101.284 114.121C90.546 114.121 82.2649 112.026 82.2649 109.437C82.2649 106.848 90.546 104.753 101.284 104.753C112.022 104.753 120.726 106.862 120.726 109.437Z" fill="#F6C6CD"/>
<path d="M76.282 109.863H120.726V113.767C120.726 115.844 119.053 117.527 116.988 117.527H82.6912C79.1515 117.527 76.282 114.641 76.282 111.08V109.863H76.282Z" fill="#40414D"/>
<path d="M68.5873 65.3514L69.5114 65.1457C70.8647 64.8445 72.2094 65.6821 72.5148 67.0167L83.7017 115.89L82.3015 116.201C79.854 116.746 77.4221 115.231 76.8696 112.818L66.6831 68.3148C66.5361 67.6728 66.6543 66.9994 67.0116 66.4434C67.3689 65.8874 67.9358 65.4945 68.5873 65.3514Z" fill="#40414D"/>
<rect x="270.299" y="155" width="4.2735" height="38.3242" transform="rotate(-180 270.299 155)" fill="#40414D"/>
<rect x="236.966" y="155" width="4.2735" height="38.3242" transform="rotate(-180 236.966 155)" fill="#40414D"/>
<path d="M229.273 110.294C229.273 112.876 237.978 114.973 248.716 114.973C259.454 114.973 267.735 112.88 267.735 110.294C267.735 107.708 259.45 105.604 248.716 105.604C237.981 105.604 229.273 107.711 229.273 110.294Z" fill="#F6C6CD"/>
<path d="M267.309 117.527H233.012C230.947 117.527 229.274 115.844 229.274 113.767V109.863H273.718V111.08C273.718 114.641 270.849 117.527 267.309 117.527Z" fill="#40414D"/>
<path d="M267.881 116.88L266.48 116.569L277.669 67.689C277.974 66.3544 279.319 65.5168 280.672 65.818L281.596 66.0237C282.95 66.325 283.799 67.651 283.494 68.9856L273.305 113.495C272.754 115.906 270.326 117.421 267.881 116.88Z" fill="#40414D"/>
<path d="M269.042 95.14L270.299 94.7481C270.299 94.7481 268.15 80.5972 268.172 67.9151C268.172 67.562 268.172 67.1843 268.172 66.8206C268.197 66.0297 268.226 65.2459 268.265 64.4798C268.315 63.4983 268.326 62.5627 268.319 61.6553C268.437 49.4428 263.556 44.2845 263.556 44.2845C263.556 44.2845 257.826 36.2275 254.392 34.6599C254.094 33.7419 253.754 32.5627 253.453 31.1928C253.564 31.1187 253.672 31.0445 253.776 30.9669C255.194 29.9296 256.551 28.8133 257.84 27.6233C259.602 25.9957 261.293 24.0115 261.199 21.773C261.209 21.5551 261.202 21.3367 261.178 21.1199C260.852 18.4189 258.005 16.3853 256.855 13.8255C255.889 11.6754 256.179 9.2816 255.333 7.09965C254.488 4.91771 251.537 2.88759 249.31 4.03505C248.49 4.45873 247.996 5.20723 247.312 5.77566C245.614 7.18792 242.878 7.31855 240.558 6.67598C238.237 6.0334 237.549 3.41365 234.305 3.40659C234.593 3.50183 234.868 3.63105 235.125 3.79143C234.854 3.74642 234.58 3.72281 234.305 3.72082C235.653 4.14139 236.624 5.30477 236.783 6.6901C236.778 6.77527 236.768 6.86012 236.754 6.94431C235.458 7.63278 233.753 7.24088 232.199 7.21617C230.645 7.19145 228.876 7.96466 229.03 9.21804C229.004 9.36047 229.004 9.50636 229.03 9.64878C229.234 10.5985 230.523 11.3153 230.681 12.1944C230.681 12.2191 230.681 12.2403 230.681 12.265C227.805 13.682 224.693 14.5766 221.495 14.9059C221.391 14.9059 221.438 15.0295 221.588 15.2096H221.495C220.911 15.2696 224.994 18.4507 225.459 18.659C227.164 19.4216 229.202 19.983 231.007 20.5691L231.164 20.6185C230.556 22.0113 230.243 23.5119 230.244 25.0283C230.244 30.4655 234.208 35.0342 239.576 36.3264C240.579 37.4809 241.632 38.7484 242.592 40.0089H242.524C242.524 40.0089 236.353 48.1011 236.55 60.1865C236.533 61.7012 236.614 63.2155 236.794 64.7199C232.826 64.4974 224.299 63.4665 217.814 58.7849C209.065 52.4756 199.306 54.368 201.34 58.1529C203.374 61.9377 213.792 65.0906 215.472 65.4084C215.629 65.4366 215.994 65.5213 216.517 65.6484C214.447 66.0333 213.029 66.7076 213.115 67.615C213.284 69.3486 222.201 74.8705 227.583 75.1847C231.139 75.393 235.419 76.4734 238.796 77.4232C239.122 84.6786 237.342 86.8535 237.342 86.8535C237.342 86.8535 237.872 87.1748 238.749 87.6303L238.373 88.6895C236.189 89.9323 233.496 91.228 231.046 91.7505C227.925 92.3828 224.89 93.3784 222.007 94.7163L209.892 100.489C207.693 101.495 206.176 103.55 205.881 105.923C205.616 108.369 206.365 111.427 210.419 113.852C210.669 115.84 211.901 118.16 215.135 120.285C221.402 124.395 237.872 136.706 240.114 138.387C240.157 141.391 239.755 147.418 235.995 148.357C231.282 149.537 235.075 154.007 238.885 153.83C239.789 154.167 240.773 154.238 241.718 154.035C245.757 153.089 260.562 148.033 261.572 140.47C261.614 140.142 261.633 139.812 261.629 139.481C261.688 138.192 261.362 136.914 260.691 135.806C260.849 136.148 260.977 136.502 261.074 136.865C259.849 134.111 256.866 132.381 254.546 131.407C254.546 131.382 254.546 131.354 254.546 131.329C254.188 131.191 253.829 131.078 253.536 130.976C253.542 130.771 253.526 130.567 253.489 130.365L230.273 114.594C230.273 114.594 240.368 106.392 250.8 107.656C261.232 108.92 262.893 107.052 262.893 107.052C262.893 107.052 268.244 102.035 268.781 96.2592L269.117 96.1709C269.117 96.1709 269.092 95.8073 269.042 95.14Z" fill="url(#paint0_linear)"/>
<path d="M241.033 136.101C241.033 136.101 241.968 146.541 237.288 147.808C232.608 149.075 236.978 154.136 240.719 153.177C244.46 152.217 258.193 147.164 259.128 139.576C260.063 131.988 249.768 129.451 249.768 129.451L241.033 136.101Z" fill="white"/>
<path opacity="0.05" d="M241.033 136.101C241.033 136.101 241.968 146.541 237.288 147.808C232.608 149.075 236.978 154.136 240.719 153.177C244.46 152.217 258.193 147.164 259.128 139.576C260.063 131.988 249.768 129.451 249.768 129.451L241.033 136.101Z" fill="black"/>
<path d="M242.742 136.952C242.742 136.952 243.678 147.393 238.998 148.66C234.318 149.927 238.687 154.987 242.428 154.028C246.169 153.069 259.902 148.015 260.837 140.428C261.773 132.84 251.477 130.302 251.477 130.302L242.742 136.952Z" fill="white"/>
<path opacity="0.1" d="M252.908 130.302L243.803 136.819C243.803 136.819 243.844 137.262 243.87 137.967C247.308 137.069 254.8 134.682 254.915 130.948C254.26 130.695 253.59 130.479 252.908 130.302Z" fill="black"/>
<rect x="243.803" y="40.8791" width="3.4188" height="2.55494" fill="#F8BDC5"/>
<path d="M243.73 86.0165C243.73 86.0165 237.651 90.6693 232.658 91.7727C229.69 92.3985 226.812 93.3794 224.091 94.693L212.608 100.379C210.489 101.417 209.057 103.433 208.806 105.731C208.478 108.894 209.784 113.055 217.576 115.529L242.131 135.412L249.786 129.199L223.636 109.632L243.73 97.5149V86.0165Z" fill="#41A8CB"/>
<path opacity="0.1" d="M243.73 86.0165C243.73 86.0165 237.651 90.6693 232.658 91.7727C229.69 92.3985 226.812 93.3794 224.091 94.693L212.608 100.379C210.489 101.417 209.057 103.433 208.806 105.731C208.478 108.894 209.784 113.055 217.576 115.529L242.131 135.412L249.786 129.199L223.636 109.632L243.73 97.5149V86.0165Z" fill="black"/>
<path d="M239.9 65.2745C239.9 65.2745 228.284 65.5825 220.12 59.3943C211.957 53.2062 202.855 55.0612 204.737 58.7748C206.619 62.4884 216.353 65.5825 217.922 65.8905C219.492 66.1985 242.094 72.3901 242.094 72.3901L239.9 65.2745Z" fill="#FBBEBE"/>
<path opacity="0.05" d="M239.9 65.2745C239.9 65.2745 228.284 65.5825 220.12 59.3943C211.957 53.2062 202.855 55.0612 204.737 58.7748C206.619 62.4884 216.353 65.5825 217.922 65.8905C219.492 66.1985 242.094 72.3901 242.094 72.3901L239.9 65.2745Z" fill="black"/>
<path d="M241.54 83.4615L237.704 94.7856C237.704 94.7856 216.13 107.839 214.369 109.568C213.002 110.912 211.173 116.174 217.565 120.575C223.957 124.976 241.536 138.819 241.536 138.819C241.536 138.819 254.961 135.973 254.003 130.636L231.948 114.911C231.948 114.911 241.536 106.729 251.446 107.992C261.357 109.255 262.955 107.362 262.955 107.362C262.955 107.362 270.627 99.8054 268.067 92.5834C265.507 85.3613 241.54 83.4615 241.54 83.4615Z" fill="#41A8CB"/>
<path d="M236.111 32.2819C236.111 32.2819 246.948 43.7328 246.309 47.1355C245.671 50.5383 254.915 37.232 254.915 37.232C254.915 37.232 252.031 30.4231 252.683 22.9945L236.111 32.2819Z" fill="#FBBEBE"/>
<path opacity="0.1" d="M246.08 42.7441C246.817 41.9792 247.593 41.2517 248.405 40.5643C250.032 39.2538 251.523 37.7902 252.859 36.1942C255.084 33.368 263.345 45.5633 263.345 45.5633C263.345 45.5633 268.428 51.184 267.795 64.6158C267.163 78.0476 268.59 96.005 268.59 96.005L266.667 96.5314C263.382 97.6085 259.774 97.1047 256.925 95.1713C254.387 93.4472 251.173 91.6384 248.729 91.4759C243.962 91.165 239.67 88.5083 239.67 88.5083C239.67 88.5083 241.737 83.6684 238.56 68.0497C235.382 52.4311 243.481 41.3309 243.481 41.3309C243.481 41.3309 244.121 44.7295 246.08 42.7441Z" fill="black"/>
<path d="M269.444 94.6832L267.554 95.3085L266.43 95.6794C263.171 96.757 259.589 96.2532 256.762 94.3194C254.247 92.599 251.054 90.7868 248.628 90.6243C243.905 90.3099 238.554 86.8762 238.554 86.8762C238.554 86.8762 241.707 82.8172 238.554 67.1996C235.4 51.5819 243.441 40.4966 243.441 40.4966C243.441 40.4966 244.076 43.8773 246.02 41.8885C246.75 41.1244 247.52 40.3981 248.325 39.7124C249.939 38.402 251.419 36.9384 252.745 35.3426C254.953 32.5165 263.151 44.711 263.151 44.711C263.151 44.711 268.196 50.3314 267.568 63.7623C267.5 65.1754 267.472 66.6308 267.468 68.1039C267.422 80.6729 269.444 94.6832 269.444 94.6832Z" fill="white"/>
<path opacity="0.1" d="M251.472 64.0476L251.786 70.9237C251.786 70.9237 235.043 71.8606 231.57 68.4243C228.097 64.988 241.039 78.5317 243.897 79.3625C246.58 80.1438 253.508 80.8331 257.142 80.9038C259.263 80.9714 261.224 79.7945 262.144 77.9024C262.568 76.9911 262.705 75.975 262.537 74.9858C261.905 70.9237 262.537 62.1703 262.537 62.1703L251.472 64.0476Z" fill="black"/>
<path d="M251.43 64.0476L251.746 70.9237C251.746 70.9237 234.94 71.8606 231.454 68.4243C227.968 64.988 215.355 65.748 215.602 68.4243C215.76 70.1424 224.163 75.6115 229.23 75.9261C234.298 76.2408 240.958 78.5317 243.827 79.3625C246.52 80.1438 253.474 80.8331 257.122 80.9038C259.251 80.9714 261.219 79.7945 262.143 77.9024C262.568 76.9911 262.705 75.975 262.537 74.9858C261.902 70.9237 262.537 62.1703 262.537 62.1703L251.43 64.0476Z" fill="#FBBEBE"/>
<path opacity="0.1" d="M255.46 43.4409C255.46 43.4409 248.053 44.3721 249.018 54.9347C249.984 65.4974 251.274 66.4286 251.274 66.4286C251.274 66.4286 262.225 65.4974 263.512 65.1847C264.798 64.8719 264.156 53.3816 264.156 53.3816C264.156 53.3816 263.832 43.1317 255.46 43.4409Z" fill="black"/>
<path d="M255.46 43.4412C255.46 43.4412 248.053 44.3724 249.018 54.9349C249.984 65.4974 251.274 66.4286 251.274 66.4286C251.274 66.4286 262.225 65.4974 263.512 65.1847C264.798 64.872 264.156 53.3818 264.156 53.3818C264.156 53.3818 263.832 43.125 255.46 43.4412Z" fill="white"/>
<path opacity="0.1" d="M252.425 29.4513C251.934 26.957 252.94 26.1873 253.205 22.9945L236.966 32.4445C236.966 32.4445 238.826 34.4899 240.941 37.1161C241.886 37.3573 242.857 37.477 243.832 37.4724C248.086 37.4902 250.413 32.8792 252.425 29.4513Z" fill="black"/>
<ellipse cx="243.376" cy="25.9753" rx="11.5385" ry="11.4973" fill="#FBBEBE"/>
<path opacity="0.1" d="M246.37 22.4728C244.571 23.581 244.546 26.0868 245.704 27.8224C246.863 29.558 248.86 30.7046 250.782 31.785C251.339 32.0987 251.955 32.4228 252.581 32.3531C253.062 32.2622 253.508 32.0439 253.869 31.7223C255.214 30.7061 256.497 29.6158 257.712 28.4567C259.461 26.7908 261.141 24.7381 260.868 22.4135C260.559 19.7753 257.867 17.7888 256.78 15.2899C255.866 13.1989 256.14 10.8534 255.341 8.71699C254.542 6.58061 251.743 4.60455 249.648 5.72328C248.875 6.13452 248.407 6.86988 247.759 7.42401C246.154 8.79715 243.567 8.93307 241.372 8.30575C239.177 7.67843 238.526 5.11686 235.463 5.10989C236.986 5.62918 238.015 7.16612 237.781 8.56713C236.554 9.23976 234.942 8.8564 233.463 8.832C231.984 8.80761 230.224 9.60919 230.48 10.8987C230.703 11.9442 232.261 12.7214 232.031 13.7669C229.328 15.1461 226.381 16.021 223.344 16.3459C222.794 16.4052 226.651 19.5104 227.09 19.716C228.699 20.4619 230.631 21.009 232.333 21.5806C236.957 23.1245 241.692 23.6751 246.37 22.4728Z" fill="black"/>
<path d="M246.37 21.6211C244.571 22.7294 244.546 25.2352 245.704 26.9708C246.863 28.7064 248.86 29.853 250.782 30.9334C251.339 31.247 251.955 31.5711 252.581 31.5014C253.062 31.4106 253.508 31.1922 253.869 30.8706C255.214 29.8545 256.497 28.7641 257.712 27.6051C259.461 25.9392 261.141 23.8864 260.868 21.5619C260.559 18.9236 257.867 16.9371 256.78 14.4383C255.866 12.3472 256.14 10.0017 255.341 7.86534C254.542 5.72896 251.743 3.7529 249.648 4.87162C248.875 5.28287 248.407 6.01823 247.759 6.57236C246.154 7.9455 243.567 8.08142 241.372 7.4541C239.177 6.82677 238.526 4.26521 235.463 4.25824C236.986 4.77752 238.015 6.31446 237.781 7.71548C236.554 8.38811 234.942 8.00475 233.463 7.98035C231.984 7.95595 230.224 8.75753 230.48 10.047C230.703 11.0926 232.261 11.8697 232.031 12.9153C229.328 14.2944 226.381 15.1693 223.344 15.4943C222.794 15.5535 226.651 18.6588 227.09 18.8644C228.699 19.6102 230.631 20.1574 232.333 20.7289C236.957 22.2763 241.692 22.8165 246.37 21.6211Z" fill="#916168"/>
<path opacity="0.1" d="M260.01 135.412C260.514 136.571 260.689 137.846 260.517 139.098C259.577 146.612 245.778 151.619 242.014 152.554C240.031 153.05 237.87 151.892 236.966 150.5C237.548 152.136 240.052 153.747 242.33 153.181C246.093 152.243 259.893 147.232 260.833 139.725C261.038 138.236 260.749 136.721 260.01 135.412Z" fill="white"/>
<path d="M159.133 144.322C158.85 143.691 157.383 142.461 150.307 142.195C145.461 142.015 143.811 139.48 143.364 137.006C144.957 136.8 146.202 136.516 146.61 136.123C146.61 136.123 146.589 136.009 146.553 135.807L146.61 135.765C146.301 133.98 146.139 132.173 146.127 130.362C146.118 128.813 146.283 127.267 146.621 125.754C146.818 124.754 146.901 123.734 146.868 122.716C146.907 116.689 144.77 106.097 144.77 106.097L144.477 97.2949C144.417 95.0578 143.128 93.0319 141.116 92.0129C140.413 91.6527 139.635 91.4608 138.844 91.4528C138.844 91.4528 127.627 89.7016 117.531 88.748C116.815 88.1773 114.292 86.6388 108.508 87.5215L105.179 77.8721C105.153 77.7553 105.133 77.6369 105.122 77.5176C105.24 76.2911 106.067 74.4441 109.922 74.3271L110.727 75.0361C110.727 75.0361 110.87 74.7561 111.11 74.3271C115.891 74.274 141.939 74.0117 143.282 74.3271C144.76 74.6816 157.709 71.8244 158.081 71.4699C163.113 66.6098 143.282 68.9672 143.282 68.9672C141.331 69.2827 135.028 68.9069 128.572 68.3858C131.768 63.6391 134.774 47.5273 134.774 47.5273C134.774 47.5273 146.227 41.8093 142.913 38.594C139.599 35.3787 129.595 45.7406 129.595 45.7406C129.595 45.7406 125.526 57.5347 123.676 61.108C122.96 62.526 122.033 62.8167 121.206 62.6536C121.582 62.3558 121.825 62.1786 121.825 62.1786C121.825 62.1786 113.687 55.7445 112.946 53.2453C112.808 52.8358 112.626 52.4424 112.402 52.0719C112.012 49.8067 111.328 47.5769 109.66 46.0916C109.38 45.7937 109.071 45.5241 108.737 45.2869C108.286 44.9678 107.774 44.6913 107.348 44.3439C107.588 43.2521 107.867 42.1177 108.157 41.0187C114.199 40.3097 118.894 35.3468 118.894 29.3204C118.893 28.4116 118.784 27.5061 118.569 26.6227C120.405 26.7424 122.171 25.9003 123.221 24.4035C124.442 22.6027 124.402 20.1496 123.379 18.2495C122.956 17.478 122.401 16.7848 121.74 16.2005C120.685 15.1484 119.399 14.3525 117.982 13.875C116.754 13.4532 115.398 13.2015 114.424 12.3755C113.989 11.812 113.593 11.2198 113.239 10.603C112.831 9.99743 112.35 9.44279 111.808 8.95106C110.018 7.12541 107.492 6.00165 104.918 5.50536C101.783 4.89917 98.544 5.11542 95.3551 5.33166C94.1633 5.41319 92.7639 5.62234 92.2271 6.65038C91.8226 7.42318 92.0875 8.34842 92.0338 9.20984C91.8656 11.9501 88.7018 13.4638 85.9495 14.1267C83.1972 14.7896 79.9153 15.3639 78.5875 17.7674C77.3814 19.9369 78.2296 22.5672 78.6161 25.0026C79.2599 29.2788 78.3013 33.6405 75.9211 37.2646C74.7114 39.0974 73.151 40.7281 72.1954 42.6955C71.1367 44.8888 70.8909 47.3811 71.5011 49.7358C71.68 50.4235 71.9377 51.1254 71.8089 51.8273C71.6624 52.4061 71.3748 52.9404 70.9714 53.3835C67.6443 57.4528 62.7537 59.9623 57.4785 60.3068C57.6977 61.0265 58.1258 61.6664 58.7097 62.1467C59.4514 62.8732 60.3164 63.4647 61.2651 63.8943C63.7644 65.1358 66.3925 66.1046 69.1031 66.7835C70.9284 67.2408 72.836 67.5669 74.6935 67.255C76.551 66.943 78.362 65.8901 79.1243 64.224C79.5681 63.2598 79.6326 62.1679 80.0262 61.186C80.81 59.2221 82.7534 57.9494 84.0669 56.2656C83.6246 60.6047 83.4156 64.9641 83.4406 69.3252C83.4406 70.69 83.4406 71.9201 83.4406 73.0616C83.4406 77.9855 83.0827 81.3816 80.0012 87.5321C79.6339 88.1786 79.473 88.9202 79.5395 89.6591C79.4032 90.4712 79.7092 91.2944 80.3448 91.8251C80.13 93.0518 80.0258 94.2951 80.0334 95.5402C79.9905 100.021 81.5187 106.037 89.6216 107.561L104.049 106.852C104.049 106.852 124.395 102.921 129.943 105.789C130.886 105.987 131.561 106.811 131.564 107.767C131.547 108.065 131.5 108.36 131.424 108.649C131.27 109.578 131.211 110.52 131.249 111.461C131.224 117.487 132.534 131.163 132.534 131.163V136.963C131.61 138.338 130.472 140.373 130.619 141.873C130.619 141.905 130.619 141.94 130.619 141.972C130.619 142.004 130.619 142.061 130.641 142.103C130.662 142.146 130.641 142.181 130.666 142.22C130.691 142.259 130.687 142.295 130.698 142.334C130.709 142.373 130.726 142.419 130.744 142.458C130.762 142.497 130.769 142.521 130.784 142.553C130.798 142.585 130.83 142.646 130.855 142.688L130.898 142.763C130.941 142.831 130.989 142.896 131.041 142.958C132.892 145.084 142.136 149.2 145.1 149.034C148.246 148.856 158.786 149.388 159.158 144.744C159.205 144.606 159.196 144.454 159.133 144.322Z" fill="url(#paint1_linear)"/>
<path d="M133.038 135.266C133.038 135.266 128.79 140.701 130.56 142.874C132.33 145.048 141.181 149.204 144.013 149.033C147.022 148.852 157.112 149.396 157.466 144.686C157.466 144.686 158.174 142.512 148.969 142.15C139.764 141.787 142.597 132.005 142.597 132.005L133.038 135.266Z" fill="white"/>
<path opacity="0.1" d="M82.1008 90.4395C82.1008 90.4395 77.7845 104.937 90.7333 107.413L104.761 106.705C104.761 106.705 124.544 102.816 129.939 105.645C129.939 105.645 132.097 105.998 131.378 108.827C130.659 111.656 132.457 130.75 132.457 130.75V137.115C132.457 137.115 144.687 137.115 146.125 135.701C146.125 135.701 145.046 130.043 146.125 125.446C147.204 120.85 144.327 106.352 144.327 106.352L144.043 97.6248C144 95.4291 142.753 93.4276 140.784 92.3914C140.103 92.0367 139.346 91.8475 138.575 91.8398C138.575 91.8398 114.117 87.9502 105.484 88.6574C96.8516 89.3646 82.1008 90.4395 82.1008 90.4395Z" fill="black"/>
<path d="M82.1008 90.4395C82.1008 90.4395 77.7845 104.937 90.7333 107.413L104.761 106.705C104.761 106.705 124.544 102.816 129.939 105.645C129.939 105.645 132.097 105.998 131.378 108.827C130.659 111.656 132.457 130.75 132.457 130.75V137.115C132.457 137.115 144.687 137.115 146.125 135.701C146.125 135.701 145.046 130.043 146.125 125.446C147.204 120.85 144.327 106.352 144.327 106.352L144.043 97.6248C144 95.4291 142.753 93.4276 140.784 92.3914C140.103 92.0367 139.346 91.8475 138.575 91.8398C138.575 91.8398 114.117 87.9502 105.484 88.6574C96.8516 89.3646 82.1008 90.4395 82.1008 90.4395Z" fill="#FF4A73"/>
<path d="M119.293 62.0493C119.293 62.0493 122.133 65.5828 123.908 62.0493C125.682 58.5157 129.587 46.855 129.587 46.855C129.587 46.855 139.172 36.6077 142.367 39.7879C145.562 42.9681 134.557 48.6218 134.557 48.6218C134.557 48.6218 130.652 70.1764 127.102 70.5298C123.553 70.8831 118.228 70.5298 118.228 70.5298L116.453 66.6429L119.293 62.0493Z" fill="#FEDEE2"/>
<path opacity="0.05" d="M119.293 62.0493C119.293 62.0493 122.133 65.5828 123.908 62.0493C125.682 58.5157 129.587 46.855 129.587 46.855C129.587 46.855 139.172 36.6077 142.367 39.7879C145.562 42.9681 134.557 48.6218 134.557 48.6218C134.557 48.6218 130.652 70.1764 127.102 70.5298C123.553 70.8831 118.228 70.5298 118.228 70.5298L116.453 66.6429L119.293 62.0493Z" fill="black"/>
<path d="M105.81 44.2857C105.81 44.2857 112.262 51.7481 112.979 54.2356C113.696 56.723 121.581 63.1194 121.581 63.1194C121.581 63.1194 115.846 67.3836 116.922 69.5157C117.997 71.6478 109.395 62.4087 109.395 62.4087L99.3589 47.8392L105.81 44.2857Z" fill="white"/>
<path opacity="0.1" d="M105.81 44.2857C105.81 44.2857 112.262 51.7481 112.979 54.2356C113.696 56.723 121.581 63.1194 121.581 63.1194C121.581 63.1194 115.846 67.3836 116.922 69.5157C117.997 71.6478 109.395 62.4087 109.395 62.4087L99.3589 47.8392L105.81 44.2857Z" fill="black"/>
<path d="M110.47 35.5022C110.47 35.5022 107.294 45.7603 107.294 49.6513C107.294 53.5423 93.8847 48.5901 94.2376 46.4678C94.5904 44.3454 102.001 36.5634 102.354 33.3799C102.707 30.1963 110.47 35.5022 110.47 35.5022Z" fill="#FEDEE2"/>
<path opacity="0.1" d="M99.1679 42.7975C99.1679 42.7975 86.719 39.6369 84.9406 57.5467C83.1622 75.4565 86.3633 77.5635 81.0281 88.4498C75.6928 99.3362 117.308 89.8545 117.308 89.8545C117.308 89.8545 115.174 87.3963 108.416 88.4498L105.215 78.9682C105.215 78.9682 104.148 74.7541 110.194 74.7541C116.241 74.7541 113.395 62.4631 113.395 62.4631C113.395 62.4631 110.194 51.928 108.416 50.8745C106.637 49.8209 103.436 43.4998 99.1679 42.7975Z" fill="black"/>
<path d="M99.1679 41.9459C99.1679 41.9459 86.719 38.7853 84.9406 56.6951C83.1622 74.6049 86.3633 76.7119 81.0281 87.5982C75.6928 98.4845 117.308 89.0029 117.308 89.0029C117.308 89.0029 115.174 86.5447 108.416 87.5982L105.215 78.1166C105.215 78.1166 104.148 73.9025 110.194 73.9025C116.241 73.9025 113.395 61.6115 113.395 61.6115C113.395 61.6115 110.194 51.0763 108.416 50.0228C106.637 48.9693 103.436 42.6482 99.1679 41.9459Z" fill="white"/>
<path d="M112.28 67.2802C112.28 67.2802 138.708 70.1882 143.052 69.4612C143.052 69.4612 162.456 67.0621 157.533 72.0057C157.171 72.3692 144.5 75.2772 143.052 74.9137C141.604 74.5502 110.832 74.9137 110.832 74.9137L110.47 71.2787L112.28 67.2802Z" fill="#FEDEE2"/>
<path opacity="0.1" d="M91.8755 58.8188L110.878 75.7967C110.878 75.7967 114.464 68.7226 115.539 68.7226C116.615 68.7226 102.632 47.8538 102.632 47.8538C102.632 47.8538 99.0463 43.6093 96.8951 45.7316C94.7438 47.8538 88.29 46.439 91.8755 58.8188Z" fill="black"/>
<path d="M91.8755 57.9671L110.878 74.945C110.878 74.945 114.464 67.8709 115.539 67.8709C116.615 67.8709 102.632 47.0022 102.632 47.0022C102.632 47.0022 99.0463 42.7577 96.8951 44.8799C94.7438 47.0022 88.29 45.5873 91.8755 57.9671Z" fill="white"/>
<ellipse cx="107.051" cy="30.2335" rx="11.9658" ry="11.4973" fill="#FEDEE2"/>
<path opacity="0.1" d="M117.611 27.4857C119.616 28.2677 122.072 27.33 123.253 25.5502C124.435 23.7705 124.399 21.3467 123.404 19.4572C122.408 17.5677 120.568 16.1948 118.539 15.4801C117.307 15.0484 115.936 14.8007 114.991 13.9091C114.393 13.3465 114.039 12.5857 113.591 11.8993C111.919 9.32338 108.937 7.80189 105.905 7.20391C102.873 6.60592 99.7368 6.81823 96.651 7.03053C95.4982 7.11191 94.145 7.31713 93.6223 8.33618C93.2321 9.10046 93.4863 10.0169 93.4362 10.8696C93.2751 13.5835 90.2143 15.0873 87.5401 15.7384C84.8659 16.3895 81.7657 17.0016 80.4626 19.3935C79.2955 21.5413 80.1296 24.1455 80.4912 26.5587C81.1095 30.7739 80.1854 35.0688 77.885 38.6704C76.7144 40.4856 75.2073 42.0991 74.2801 44.0487C73.2544 46.2274 73.0168 48.6882 73.607 51.0193C73.7824 51.7022 74.0295 52.3957 73.9077 53.0892C73.7674 53.6592 73.4899 54.1872 73.0987 54.6284C69.9259 58.6409 65.1821 61.1376 60.0427 61.4999C60.4508 63.0178 61.9365 63.9767 63.3506 64.6844C65.7635 65.911 68.3064 66.8699 70.9328 67.5434C72.6977 67.9963 74.545 68.3183 76.3421 68.0104C78.1392 67.7026 79.8898 66.6588 80.638 65.0099C81.0676 64.0545 81.132 62.9753 81.5115 61.9988C82.3671 59.8085 84.6475 58.4852 85.8718 56.4719C87.0425 54.547 87.4971 54.3205 87.7942 52.0985C88.0914 49.8764 88.7465 47.4774 90.5937 46.1717C92.5269 44.8024 95.2476 45.0642 97.3956 46.1151C99.5435 47.166 100.872 46.7556 102.665 48.2983C105.812 50.9998 109.333 53.2422 113.122 54.9575C112.764 51.872 112.188 48.4292 109.653 46.5928C108.937 46.0656 108.032 45.6622 107.652 44.8555C107.047 43.571 108.082 42.0036 107.613 40.6625C107.144 39.3215 105.361 38.8261 104.57 37.6089C103.897 36.5757 104.079 35.171 104.709 34.1095C105.339 33.048 106.335 32.2625 107.326 31.5194C108.207 30.8613 109.1 30.2185 110.004 29.591C110.821 29.0784 111.555 28.4461 112.181 27.7157C112.539 27.231 112.775 26.1695 113.273 25.8262C114.525 24.97 116.451 27.0363 117.611 27.4857Z" fill="black"/>
<path d="M116.757 26.6341C118.761 27.416 121.217 26.4784 122.399 24.6986C123.58 22.9188 123.544 20.495 122.549 18.6056C121.554 16.7161 119.714 15.3432 117.684 14.6284C116.452 14.1968 115.081 13.9491 114.136 13.0574C113.538 12.4948 113.184 11.7341 112.736 11.0476C111.065 8.47172 108.082 6.95023 105.05 6.35225C102.018 5.75427 98.8821 5.96657 95.7962 6.17887C94.6435 6.26025 93.2903 6.46548 92.7676 7.48452C92.3774 8.24881 92.6316 9.16524 92.5815 10.018C92.4204 12.7319 89.3595 14.2357 86.6853 14.8867C84.0111 15.5378 80.9109 16.1499 79.6078 18.5419C78.4408 20.6896 79.2749 23.2939 79.6365 25.707C80.2548 29.9222 79.3306 34.2171 77.0303 37.8188C75.8597 39.634 74.3525 41.2474 73.4253 43.1971C72.3997 45.3758 72.1621 47.8365 72.7523 50.1676C72.9277 50.8505 73.1747 51.544 73.053 52.2375C72.9127 52.8075 72.6351 53.3356 72.2439 53.7767C69.0711 57.7893 64.3274 60.286 59.188 60.6482C59.5961 62.1662 61.0818 63.125 62.4958 63.8327C64.9088 65.0594 67.4517 66.0182 70.0781 66.6917C71.843 67.1446 73.6902 67.4666 75.4874 67.1588C77.2845 66.8509 79.035 65.8071 79.7833 64.1582C80.2128 63.2029 80.2773 62.1237 80.6568 61.1471C81.5124 58.9569 83.7928 57.6335 85.0171 55.6202C86.1877 53.6954 86.6424 53.4689 86.9395 51.2468C87.2366 49.0247 87.8918 46.6257 89.739 45.3201C91.6722 43.9507 94.3929 44.2126 96.5408 45.2635C98.6888 46.3144 100.017 45.9039 101.81 47.4466C104.957 50.1481 108.478 52.3906 112.267 54.1058C111.909 51.0204 111.333 47.5775 108.798 45.7411C108.082 45.2139 107.177 44.8106 106.797 44.0038C106.192 42.7194 107.227 41.1519 106.758 39.8109C106.289 38.4698 104.506 37.9745 103.715 36.7573C103.042 35.7241 103.225 34.3194 103.855 33.2579C104.485 32.1963 105.48 31.4108 106.472 30.6678C107.352 30.0096 108.245 29.3668 109.149 28.7394C109.967 28.2267 110.701 27.5944 111.326 26.8641C111.684 26.3793 111.92 25.3178 112.418 24.9746C113.671 24.1183 115.597 26.1847 116.757 26.6341Z" fill="#916168"/>
<g opacity="0.1">
<path d="M142.643 134.89C142.67 133.946 142.809 133.008 143.056 132.094L142.875 132.155C142.694 133.055 142.617 133.973 142.643 134.89Z" fill="white"/>
<path d="M144.502 148.063C141.609 148.229 132.569 144.159 130.761 142.03C130.523 141.742 130.378 141.391 130.341 141.022C130.234 141.627 130.386 142.248 130.761 142.74C132.569 144.869 141.609 148.939 144.502 148.772C147.576 148.595 157.881 149.127 158.243 144.514C158.27 144.387 158.252 144.254 158.192 144.138C157.364 148.389 147.5 147.889 144.502 148.063Z" fill="white"/>
</g>
<rect x="159.009" y="42.5824" width="0.358852" height="14.478" fill="#FFD77C" stroke="#FFAB50" stroke-width="0.5"/>
<rect x="159.009" y="42.5824" width="0.358852" height="14.478" fill="#FFD77C" stroke="#FFAB50" stroke-width="0.5"/>
<rect x="159.009" y="42.5824" width="0.358852" height="14.478" fill="#FFD77C" stroke="#FFAB50" stroke-width="0.5"/>
<rect x="159.863" y="42.5824" width="0.358852" height="14.478" fill="#FFD77C" stroke="#FFAB50" stroke-width="0.5"/>
<rect x="159.863" y="42.5824" width="0.358852" height="14.478" fill="#FFD77C" stroke="#FFAB50" stroke-width="0.5"/>
<rect x="160.718" y="42.5824" width="0.358852" height="14.478" fill="#FFD77C" stroke="#FFAB50" stroke-width="0.5"/>
<rect x="160.718" y="42.5824" width="0.358852" height="14.478" fill="#FFD77C" stroke="#FFAB50" stroke-width="0.5"/>
<defs>
<linearGradient id="paint0_linear" x1="270.296" y1="154.165" x2="270.296" y2="3.40659" gradientUnits="userSpaceOnUse">
<stop stop-color="#808080" stop-opacity="0.25"/>
<stop offset="0.54" stop-color="#808080" stop-opacity="0.12"/>
<stop offset="1" stop-color="#808080" stop-opacity="0.1"/>
</linearGradient>
<linearGradient id="paint1_linear" x1="159.193" y1="148.995" x2="159.193" y2="5.06933" gradientUnits="userSpaceOnUse">
<stop stop-color="#808080" stop-opacity="0.25"/>
<stop offset="0.54" stop-color="#808080" stop-opacity="0.12"/>
<stop offset="1" stop-color="#808080" stop-opacity="0.1"/>
</linearGradient>
</defs>
</svg>
